{
    "status": "success",
    "data": {
        "total": "126",
        "per_page": "20",
        "current_page": "1",
        "last_page": "7",
        "next_page_url": "http://api.vistopia.com.cn/api/v1/search/search-new?keyword=%E6%9D%A8%E7%85%A7&page=2",
        "prev_page_url": null,
        "from": "0",
        "to": "20",
        "data": [
            {
                "id": "2",
                "weight": "80",
                "top": "2",
                "data_type": "author",
                "index": "0.3",
                "title": "杨照",
                "subtitle": "史记百讲",
                "icon": "https://cdn5.vistopia.com.cn/1534919238170.jpg",
                "share_desc": "著名作家、文学评论家、历史学者"
            },
            {
                "id": "9",
                "weight": "75",
                "top": "2",
                "data_type": "album",
                "index": "1",
                "title": "杨照：中国原典通读计划",
                "subtitle": "",
                "icon": "https://cdn5.vistopia.com.cn/1566469835908.jpg",
                "share_desc": "陪你10年，读懂3000年中国经典 | 杨照×梁文道  看理想·中国原典通读计划",
                "is_pack": "1",
                "content_imgs": [
                    "https://cdn5.vistopia.com.cn/1566468661940.png",
                    "https://cdn5.vistopia.com.cn/1566282043197.png",
                    "https://cdn5.vistopia.com.cn/1586405714746.png",
                    "https://cdn5.vistopia.com.cn/1630554806965.jpg",
                    "https://cdn5.vistopia.com.cn/1628767664644.jpg",
                    "https://cdn5.vistopia.com.cn/1650527941598.jpeg",
                    "https://cdn5.vistopia.com.cn/1671097864919.jpeg",
                    "https://cdn5.vistopia.com.cn/1694675846174.jpg",
                    "https://cdn5.vistopia.com.cn/1566294177280.png",
                    "https://cdn5.vistopia.com.cn/1566294263660.png",
                    "https://cdn5.vistopia.com.cn/1566294348249.png",
                    "https://cdn5.vistopia.com.cn/1566294435064.png",
                    "https://cdn5.vistopia.com.cn/1566294844283.png",
                    "https://cdn5.vistopia.com.cn/1566358573169.png"
                ],
                "price": "2,772.00",
                "is_promotion": "1",
                "promotion_price": "1,398.00",
                "promotion_desc": "",
                "link_url": "https://shop.vistopia.com.cn/yangzhao",
                "sale_price": "1,398.00",
                "origin_price": "2,772.00",
                "recommend_tag": "限时特价"
            },
            {
                "id": "28",
                "weight": "75",
                "top": "2",
                "data_type": "album",
                "index": "1",
                "title": "杨照·重述中国通史",
                "subtitle": "",
                "icon": "https://cdn5.vistopia.com.cn/1614859216443.jpg",
                "share_desc": "500+集、10000+分钟，推理探案般重新讲述中国通史。",
                "is_pack": "1",
                "content_imgs": [
                    "https://cdn5.vistopia.com.cn/1614855890020.jpg",
                    "https://cdn5.vistopia.com.cn/1626953260431.jpg",
                    "https://cdn5.vistopia.com.cn/1639642660020.jpeg",
                    "https://cdn5.vistopia.com.cn/1652872855290.jpg",
                    "https://cdn5.vistopia.com.cn/1662632541495.jpeg",
                    "https://cdn5.vistopia.com.cn/1692255988987.jpg",
                    "https://cdn5.vistopia.com.cn/1614855532754.jpg",
                    "https://cdn5.vistopia.com.cn/1614855743237.jpg",
                    "https://cdn5.vistopia.com.cn/1614855796229.jpg",
                    "https://cdn5.vistopia.com.cn/1614855970629.jpg"
                ],
                "price": "1,010.00",
                "is_promotion": "1",
                "promotion_price": "468.00",
                "promotion_desc": "",
                "link_url": "vistopia://album?album_id=28",
                "sale_price": "468.00",
                "origin_price": "1,010.00",
                "recommend_tag": "限时特价"
            },
            {
                "id": "72",
                "weight": "60",
                "top": "2",
                "data_type": "content",
                "index": "2",
                "title": "中国奇幻录：两汉魏晋经典选读",
                "subtitle": "",
                "icon": "https://cdn5.vistopia.com.cn/1630554806965.jpg",
                "share_desc": "中国原典通读计划·第4季",
                "type": "charge",
                "media_type_en": "audio",
                "author": "杨照",
                "price": "198.00",
                "is_presell": "0",
                "presell_time": "",
                "is_purchased": "0",
                "is_subscribed": "0",
                "friend_vip_price": "174.00",
                "vip_type": "",
                "is_friend_vip": "0",
                "is_vip_free": "1",
                "is_limited_free": "0",
                "is_vip_only": "0",
                "is_promotion": "0",
                "promotion_price": "0.00",
                "promotion_desc": "",
                "sale_price": "198.00",
                "origin_price": "198.00"
            },
            {
                "id": "12",
                "weight": "60",
                "top": "2",
                "data_type": "content",
                "index": "2",
                "title": "史记百讲",
                "subtitle": "",
                "icon": "https://cdn5.vistopia.com.cn/1535451370138.png",
                "share_desc": "穿越2000年，捕捉人性的高光时刻",
                "type": "charge",
                "media_type_en": "audio",
                "author": "杨照",
                "price": "168.00",
                "is_presell": "0",
                "presell_time": "",
                "is_purchased": "0",
                "is_subscribed": "0",
                "friend_vip_price": "112.00",
                "vip_type": "",
                "is_friend_vip": "0",
                "is_vip_free": "1",
                "is_limited_free": "0",
                "is_vip_only": "0",
                "is_promotion": "1",
                "promotion_price": "128.00",
                "promotion_desc": "限时优惠",
                "sale_price": "128.00",
                "origin_price": "168.00"
            },
            {
                "id": "197",
                "weight": "60",
                "top": "2",
                "data_type": "content",
                "index": "2",
                "title": "佛教与外族如何改变中国：魏晋南北朝",
                "subtitle": "",
                "icon": "https://cdn5.vistopia.com.cn/1662632541495.jpeg",
                "share_desc": "杨照·重述中国通史 第五季",
                "type": "charge",
                "media_type_en": "audio",
                "author": "杨照",
                "price": "98.00",
                "is_presell": "0",
                "presell_time": "",
                "is_purchased": "0",
                "is_subscribed": "0",
                "friend_vip_price": "68.00",
                "vip_type": "",
                "is_friend_vip": "0",
                "is_vip_free": "1",
                "is_limited_free": "0",
                "is_vip_only": "0",
                "is_promotion": "1",
                "promotion_price": "78.00",
                "promotion_desc": "折扣价",
                "sale_price": "78.00",
                "origin_price": "98.00"
            },
            {
                "id": "96",
                "weight": "60",
                "top": "2",
                "data_type": "content",
                "index": "2",
                "title": "曾经江湖：重读金庸",
                "subtitle": "",
                "icon": "https://cdn5.vistopia.com.cn/1572322579764.png",
                "share_desc": "时局、文学、理想交杂的武侠世界",
                "type": "charge",
                "media_type_en": "audio",
                "author": "杨照",
                "price": "98.00",
                "is_presell": "0",
                "presell_time": "",
                "is_purchased": "0",
                "is_subscribed": "0",
                "friend_vip_price": "86.00",
                "vip_type": "",
                "is_friend_vip": "0",
                "is_vip_free": "1",
                "is_limited_free": "0",
                "is_vip_only": "0",
                "is_promotion": "0",
                "promotion_price": "0.00",
                "promotion_desc": "",
                "sale_price": "98.00",
                "origin_price": "98.00"
            },
            {
                "id": "71",
                "weight": "60",
                "top": "2",
                "data_type": "content",
                "index": "2",
                "title": "帝国的开端：十部经典里的大汉王朝",
                "subtitle": "",
                "icon": "https://cdn5.vistopia.com.cn/1586405714746.png",
                "share_desc": "中国原典通读计划·第三季，从《礼记》到《盐铁论》",
                "type": "charge",
                "media_type_en": "audio",
                "author": "杨照",
                "price": "198.00",
                "is_presell": "0",
                "presell_time": "",
                "is_purchased": "0",
                "is_subscribed": "0",
                "friend_vip_price": "174.00",
                "vip_type": "",
                "is_friend_vip": "0",
                "is_vip_free": "1",
                "is_limited_free": "0",
                "is_vip_only": "0",
                "is_promotion": "0",
                "promotion_price": "0.00",
                "promotion_desc": "",
                "sale_price": "198.00",
                "origin_price": "198.00"
            },
            {
                "id": "192",
                "weight": "60",
                "top": "2",
                "data_type": "content",
                "index": "2",
                "title": "聚落如何走向国家：从新石器时代到夏商周",
                "subtitle": "",
                "icon": "https://cdn5.vistopia.com.cn/1614855890020.jpg",
                "share_desc": "杨照·重述中国通史  第一季",
                "type": "charge",
                "media_type_en": "audio",
                "author": "杨照",
                "price": "98.00",
                "is_presell": "0",
                "presell_time": "",
                "is_purchased": "0",
                "is_subscribed": "0",
                "friend_vip_price": "86.00",
                "vip_type": "",
                "is_friend_vip": "0",
                "is_vip_free": "1",
                "is_limited_free": "0",
                "is_vip_only": "0",
                "is_promotion": "0",
                "promotion_price": "0.00",
                "promotion_desc": "",
                "sale_price": "98.00",
                "origin_price": "98.00"
            },
            {
                "id": "70",
                "weight": "60",
                "top": "2",
                "data_type": "content",
                "index": "2",
                "title": "百家争鸣时：春秋战国经典八部",
                "subtitle": "",
                "icon": "https://cdn5.vistopia.com.cn/1566282043197.png",
                "share_desc": "中国原典通读计划·第二季，从《楚辞》到《吕氏春秋》",
                "type": "charge",
                "media_type_en": "audio",
                "author": "杨照",
                "price": "198.00",
                "is_presell": "0",
                "presell_time": "",
                "is_purchased": "0",
                "is_subscribed": "0",
                "friend_vip_price": "174.00",
                "vip_type": "",
                "is_friend_vip": "0",
                "is_vip_free": "1",
                "is_limited_free": "0",
                "is_vip_only": "0",
                "is_promotion": "0",
                "promotion_price": "178.00",
                "promotion_desc": "",
                "sale_price": "198.00",
                "origin_price": "198.00"
            },
            {
                "id": "75",
                "weight": "60",
                "top": "2",
                "data_type": "content",
                "index": "2",
                "title": "帝国的新气象：九部经典里的大唐",
                "subtitle": "",
                "icon": "https://cdn5.vistopia.com.cn/1671097864919.jpeg",
                "share_desc": "中国原典通读计划·第七季",
                "type": "charge",
                "media_type_en": "audio",
                "author": "杨照",
                "price": "198.00",
                "is_presell": "0",
                "presell_time": "",
                "is_purchased": "0",
                "is_subscribed": "0",
                "friend_vip_price": "174.00",
                "vip_type": "",
                "is_friend_vip": "0",
                "is_vip_free": "1",
                "is_limited_free": "0",
                "is_vip_only": "0",
                "is_promotion": "0",
                "promotion_price": "0.00",
                "promotion_desc": "",
                "sale_price": "198.00",
                "origin_price": "198.00"
            },
            {
                "id": "17",
                "weight": "60",
                "top": "2",
                "data_type": "content",
                "index": "2",
                "title": "古代中国的留言：先秦经典八部",
                "subtitle": "",
                "icon": "https://cdn5.vistopia.com.cn/1566468661940.png",
                "share_desc": "中国原典通读计划·第一季，从《尚书》到《荀子》",
                "type": "charge",
                "media_type_en": "audio",
                "author": "杨照",
                "price": "198.00",
                "is_presell": "0",
                "presell_time": "",
                "is_purchased": "0",
                "is_subscribed": "0",
                "friend_vip_price": "174.00",
                "vip_type": "",
                "is_friend_vip": "0",
                "is_vip_free": "1",
                "is_limited_free": "0",
                "is_vip_only": "0",
                "is_promotion": "0",
                "promotion_price": "0.00",
                "promotion_desc": "",
                "sale_price": "198.00",
                "origin_price": "198.00"
            },
            {
                "id": "73",
                "weight": "60",
                "top": "2",
                "data_type": "content",
                "index": "2",
                "title": "风流与风骨：十部经典里的三国魏晋时代",
                "subtitle": "",
                "icon": "https://cdn5.vistopia.com.cn/1628767664644.jpg",
                "share_desc": "中国原典通读计划·第5季",
                "type": "charge",
                "media_type_en": "audio",
                "author": "杨照",
                "price": "198.00",
                "is_presell": "0",
                "presell_time": "",
                "is_purchased": "0",
                "is_subscribed": "0",
                "friend_vip_price": "174.00",
                "vip_type": "",
                "is_friend_vip": "0",
                "is_vip_free": "1",
                "is_limited_free": "0",
                "is_vip_only": "0",
                "is_promotion": "0",
                "promotion_price": "0.00",
                "promotion_desc": "",
                "sale_price": "198.00",
                "origin_price": "198.00"
            },
            {
                "id": "335",
                "weight": "60",
                "top": "2",
                "data_type": "content",
                "index": "2",
                "title": "前路，another world is ____",
                "subtitle": "",
                "icon": "https://cdn5.vistopia.com.cn/1700463692174.jpg",
                "share_desc": "2023 理想家年会视频版",
                "type": "charge",
                "media_type_en": "video",
                "author": "看理想讲者等",
                "price": "0.00",
                "is_presell": "0",
                "presell_time": "",
                "is_purchased": "0",
                "is_subscribed": "0",
                "friend_vip_price": "0.00",
                "vip_type": "",
                "is_friend_vip": "0",
                "is_vip_free": "1",
                "is_limited_free": "0",
                "is_vip_only": "1",
                "is_promotion": "0",
                "promotion_price": "0.00",
                "promotion_desc": "",
                "sale_price": "0.00",
                "origin_price": "0.00"
            },
            {
                "id": "74",
                "weight": "60",
                "top": "2",
                "data_type": "content",
                "index": "2",
                "title": "文化与佛教的激荡：十部经典里的南北朝",
                "subtitle": "",
                "icon": "https://cdn5.vistopia.com.cn/1650527941598.jpeg",
                "share_desc": "中国原典通读计划·第六季",
                "type": "charge",
                "media_type_en": "audio",
                "author": "杨照",
                "price": "198.00",
                "is_presell": "0",
                "presell_time": "",
                "is_purchased": "0",
                "is_subscribed": "0",
                "friend_vip_price": "174.00",
                "vip_type": "",
                "is_friend_vip": "0",
                "is_vip_free": "1",
                "is_limited_free": "0",
                "is_vip_only": "0",
                "is_promotion": "0",
                "promotion_price": "0.00",
                "promotion_desc": "",
                "sale_price": "198.00",
                "origin_price": "198.00"
            },
            {
                "id": "242",
                "weight": "60",
                "top": "2",
                "data_type": "content",
                "index": "2",
                "title": "问题出现就来告诉我",
                "subtitle": "",
                "icon": "https://cdn5.vistopia.com.cn/1636021047769.jpg",
                "share_desc": "看理想和朋友们的聊天室",
                "type": "charge",
                "media_type_en": "audio",
                "author": "看理想",
                "price": "0.00",
                "is_presell": "0",
                "presell_time": "",
                "is_purchased": "0",
                "is_subscribed": "0",
                "friend_vip_price": "0.00",
                "vip_type": "",
                "is_friend_vip": "0",
                "is_vip_free": "1",
                "is_limited_free": "0",
                "is_vip_only": "1",
                "is_promotion": "0",
                "promotion_price": "0.00",
                "promotion_desc": "",
                "sale_price": "0.00",
                "origin_price": "0.00"
            },
            {
                "id": "198",
                "weight": "60",
                "top": "2",
                "data_type": "content",
                "index": "2",
                "title": "新帝国试验的伟大与失败：隋唐",
                "subtitle": "",
                "icon": "https://cdn5.vistopia.com.cn/1692255988987.jpg",
                "share_desc": "杨照·重述中国通史 第六季",
                "type": "charge",
                "media_type_en": "audio",
                "author": "杨照",
                "price": "98.00",
                "is_presell": "0",
                "presell_time": "",
                "is_purchased": "0",
                "is_subscribed": "0",
                "friend_vip_price": "68.00",
                "vip_type": "",
                "is_friend_vip": "0",
                "is_vip_free": "1",
                "is_limited_free": "0",
                "is_vip_only": "0",
                "is_promotion": "1",
                "promotion_price": "78.00",
                "promotion_desc": "折扣价",
                "sale_price": "78.00",
                "origin_price": "98.00"
            },
            {
                "id": "194",
                "weight": "60",
                "top": "2",
                "data_type": "content",
                "index": "2",
                "title": "如何统治庞大的帝国：西汉",
                "subtitle": "",
                "icon": "https://cdn5.vistopia.com.cn/1639642660020.jpeg",
                "share_desc": "杨照·重述中国通史 第三季",
                "type": "charge",
                "media_type_en": "audio",
                "author": "杨照",
                "price": "98.00",
                "is_presell": "0",
                "presell_time": "",
                "is_purchased": "0",
                "is_subscribed": "0",
                "friend_vip_price": "68.00",
                "vip_type": "",
                "is_friend_vip": "0",
                "is_vip_free": "1",
                "is_limited_free": "0",
                "is_vip_only": "0",
                "is_promotion": "1",
                "promotion_price": "78.00",
                "promotion_desc": "",
                "sale_price": "78.00",
                "origin_price": "98.00"
            },
            {
                "id": "76",
                "weight": "60",
                "top": "2",
                "data_type": "content",
                "index": "2",
                "title": "辉煌的唐诗",
                "subtitle": "",
                "icon": "https://cdn5.vistopia.com.cn/1694675846174.jpg",
                "share_desc": "中国原典通读计划·第八季",
                "type": "charge",
                "media_type_en": "audio",
                "author": "杨照",
                "price": "198.00",
                "is_presell": "0",
                "presell_time": "",
                "is_purchased": "0",
                "is_subscribed": "0",
                "friend_vip_price": "174.00",
                "vip_type": "",
                "is_friend_vip": "0",
                "is_vip_free": "1",
                "is_limited_free": "0",
                "is_vip_only": "0",
                "is_promotion": "0",
                "promotion_price": "0.00",
                "promotion_desc": "限时特价",
                "sale_price": "198.00",
                "origin_price": "198.00"
            },
            {
                "id": "195",
                "weight": "60",
                "top": "2",
                "data_type": "content",
                "index": "2",
                "title": "乱世如何求生：从东汉到三国",
                "subtitle": "",
                "icon": "https://cdn5.vistopia.com.cn/1652872855290.jpg",
                "share_desc": "杨照·重述中国通史 第四季",
                "type": "charge",
                "media_type_en": "audio",
                "author": "杨照",
                "price": "98.00",
                "is_presell": "0",
                "presell_time": "",
                "is_purchased": "0",
                "is_subscribed": "0",
                "friend_vip_price": "68.00",
                "vip_type": "",
                "is_friend_vip": "0",
                "is_vip_free": "1",
                "is_limited_free": "0",
                "is_vip_only": "0",
                "is_promotion": "1",
                "promotion_price": "78.00",
                "promotion_desc": "",
                "sale_price": "78.00",
                "origin_price": "98.00"
            }
        ]
    }
}
